{
  "backdrop_path": "/bzoZjhbpriBT2N5kwgK0weUfVOX.jpg",
  "created_by": [
    {
      "id": 66633,
      "name": "Vince Gilligan",
      "profile_path": "/rLSUjr725ez1cK7SKVxC9udO03Y.jpg"
    }
  ],
  "episode_run_time": [
    45,
    47
  ],
  "first_air_date": "2008-01-19",
  "genres": [
    {
      "id": 18,
      "name": "Drama"
    }
  ],
  "homepage": "http://www.amc.com/shows/breaking-bad",
  "id": 1396,
  "in_production": false,
  "languages": [
    "en",
    "de",
    "ro",
    "es",
    "fa"
  ],
  "last_air_date": "2013-09-29",
  "name": "Breaking Bad",
  "networks": [
    {
      "id": 174,
      "name": "AMC"
    }
  ],
  "number_of_episodes": 62,
  "number_of_seasons": 5,
  "origin_country": [
    "US"
  ],
  "original_language": "en",
  "original_name": "Breaking Bad",
  "overview": "Breaking Bad is an American crime drama television series created and produced by Vince Gilligan. Set and produced in Albuquerque, New Mexico, Breaking Bad is the story of Walter White, a struggling high school chemistry teacher who is diagnosed with inoperable lung cancer at the beginning of the series. He turns to a life of crime, producing and selling methamphetamine, in order to secure his family's financial future before he dies, teaming with his former student, Jesse Pinkman. Heavily serialized, the series is known for positioning its characters in seemingly inextricable corners and has been labeled a contemporary western by its creator.",
  "popularity": 21.15616,
  "poster_path": "/1yeVJox3rjo2jBKrrihIMj7uoS9.jpg",
  "production_companies": [
    {
      "name": "Gran Via Productions",
      "id": 2605
    },
    {
      "name": "Sony Pictures Television",
      "id": 11073
    },
    {
      "name": "High Bridge Entertainment",
      "id": 33742
    }
  ],
  "seasons": [
    {
      "air_date": "2009-02-17",
      "episode_count": 6,
      "id": 3577,
      "poster_path": "/AngNuUbXSciwLnUXtdOBHqphxNr.jpg",
      "season_number": 0
    },
    {
      "air_date": "2008-01-19",
      "episode_count": 7,
      "id": 3572,
      "poster_path": "/1BP4xYv9ZG4ZVHkL7ocOziBbSYH.jpg",
      "season_number": 1
    },
    {
      "air_date": "2009-03-08",
      "episode_count": 13,
      "id": 3573,
      "poster_path": "/gdzDWM65k0Mrw1O4PFQm4ickcLV.jpg",
      "season_number": 2
    },
    {
      "air_date": "2010-03-21",
      "episode_count": 13,
      "id": 3575,
      "poster_path": "/yd3Q7W6t7vIW8Tm0dK2VUhIOnlH.jpg",
      "season_number": 3
    },
    {
      "air_date": "2011-07-17",
      "episode_count": 13,
      "id": 3576,
      "poster_path": "/hEOORc9661CRPpDa207w1GuEAMj.jpg",
      "season_number": 4
    },
    {
      "air_date": "2012-07-15",
      "episode_count": 16,
      "id": 3578,
      "poster_path": "/r3z70vunihrAkjILQKWHX0G2xzO.jpg",
      "season_number": 5
    }
  ],
  "status": "Ended",
  "type": "Scripted",
  "vote_average": 8.199999999999999,
  "vote_count": 1808,
  "credits": {
    "cast": [
      {
        "character": "Walter White",
        "credit_id": "52542282760ee313280017f9",
        "gender": 2,
        "id": 17419,
        "name": "Bryan Cranston",
        "order": 0,
        "profile_path": "/uwGQELv3FGIGm2KU20tOkcKQ54E.jpg"
      },
      {
        "character": "Skyler White",
        "credit_id": "52542282760ee3132800181b",
        "gender": 1,
        "id": 134531,
        "name": "Anna Gunn",
        "order": 1,
        "profile_path": "/6yLKtfYFWbJp5HAjvCecQCYlmqk.jpg"
      },
      {
        "character": "Jesse Pinkman",
        "credit_id": "52542282760ee31328001845",
        "gender": 2,
        "id": 84497,
        "name": "Aaron Paul",
        "order": 2,
        "profile_path": "/pAa8H7DjgXENBhyvJy0hVLKvVT6.jpg"
      },
      {
        "character": "Hank Schrader",
        "credit_id": "52542283760ee3132800187b",
        "gender": 2,
        "id": 14329,
        "name": "Dean Norris",
        "order": 3,
        "profile_path": "/owIr4b4VIlJu0m6Drofd3P0qDl5.jpg"
      },
      {
        "character": "Marie Schrader",
        "credit_id": "52542283760ee31328001891",
        "gender": 1,
        "id": 1217934,
        "name": "Betsy Brandt",
        "order": 4,
        "profile_path": "/zpmsca1HCVqYrtWXV9xdmsECDTI.jpg"
      },
      {
        "character": "Walter White Jr.",
        "credit_id": "52542284760ee313280018a9",
        "gender": 2,
        "id": 209674,
        "name": "RJ Mitte",
        "order": 5,
        "profile_path": "/hAePiQIVZkgGfAB8bCxdmS9nCfW.jpg"
      },
      {
        "character": "Mike Ehrmantraut",
        "credit_id": "5271b1e6760ee35af60941ad",
        "gender": 2,
        "id": 783,
        "name": "Jonathan Banks",
        "order": 10,
        "profile_path": "/s6K0lromCtmSTzuX9hig8OPiRsC.jpg"
      },
      {
        "character": "Saul Goodman",
        "credit_id": "5271b180760ee35afc09bb8d",
        "gender": 2,
        "id": 59410,
        "name": "Bob Odenkirk",
        "order": 73,
        "profile_path": "/nJLcRRqq9JTQTgVYrFn7vPDgAsK.jpg"
      }
    ],
    "crew": [
      {
        "credit_id": "52542287760ee31328001af1",
        "department": "Production",
        "gender": 2,
        "id": 66633,
        "job": "Executive Producer",
        "name": "Vince Gilligan",
        "profile_path": "/rLSUjr725ez1cK7SKVxC9udO03Y.jpg"
      },
      {
        "credit_id": "52542287760ee31328001b69",
        "department": "Production",
        "gender": 0,
        "id": 5162,
        "job": "Executive Producer",
        "name": "Mark Johnson",
        "profile_path": "/yKGF6cbzyP03Gl1QhVLCu1gWSW6.jpg"
      },
      {
        "credit_id": "52542288760ee31328001b83",
        "department": "Production",
        "gender": 1,
        "id": 29779,
        "job": "Executive Producer",
        "name": "Michelle MacLaren",
        "profile_path": "/7pSOTNnQB5GJXm5HylTY04Y2QAB.jpg"
      },
      {
        "credit_id": "52b7034f19c2955402184de6",
        "department": "Costume & Make-Up",
        "gender": 0,
        "id": 35583,
        "job": "Costume Design",
        "name": "Kathleen Detoro",
        "profile_path": null
      },
      {
        "credit_id": "52b7008819c29559eb03dd72",
        "department": "Sound",
        "gender": 2,
        "id": 1280070,
        "job": "Original Music Composer",
        "name": "Dave Porter",
        "profile_path": null
      },
      {
        "credit_id": "52b7020b19c295223b0a46e8",
        "department": "Art",
        "gender": 2,
        "id": 21640,
        "job": "Production Design",
        "name": "Robb Wilson King",
        "profile_path": null
      },
      {
        "credit_id": "52542287760ee31328001b07",
        "department": "Production",
        "gender": 0,
        "id": 1218856,
        "job": "Producer",
        "name": "Patty Lin",
        "profile_path": null
      },
      {
        "credit_id": "52542287760ee31328001b27",
        "department": "Production",
        "gender": 0,
        "id": 29924,
        "job": "Producer",
        "name": "John Shiban",
        "profile_path": "/rswDSJsdupySS9oEBKzYDE7Uod9.jpg"
      },
      {
        "credit_id": "52542289760ee31328001b9d",
        "department": "Production",
        "gender": 1,
        "id": 1223199,
        "job": "Producer",
        "name": "Melissa Bernstein",
        "profile_path": null
      },
      {
        "credit_id": "52542289760ee31328001bb3",
        "department": "Production",
        "gender": 0,
        "id": 1223194,
        "job": "Producer",
        "name": "Sam Catlin",
        "profile_path": "/6Oy9AmJ9JDCzJ5RbBL4no2zZgDl.jpg"
      },
      {
        "credit_id": "52542289760ee31328001bd1",
        "department": "Production",
        "gender": 0,
        "id": 24951,
        "job": "Producer",
        "name": "Peter Gould",
        "profile_path": null
      },
      {
        "credit_id": "52542289760ee31328001be9",
        "department": "Production",
        "gender": 0,
        "id": 1223193,
        "job": "Producer",
        "name": "George Mastras",
        "profile_path": null
      },
      {
        "credit_id": "52542289760ee31328001c03",
        "department": "Production",
        "gender": 0,
        "id": 103009,
        "job": "Producer",
        "name": "Thomas Schnauz",
        "profile_path": null
      },
      {
        "credit_id": "5254228a760ee31328001c1d",
        "department": "Production",
        "gender": 0,
        "id": 1223200,
        "job": "Producer",
        "name": "Stewart Lyons",
        "profile_path": null
      },
      {
        "credit_id": "5254228c760ee31328001c37",
        "department": "Production",
        "gender": 0,
        "id": 1223201,
        "job": "Producer",
        "name": "Karen Moore",
        "profile_path": null
      },
      {
        "credit_id": "5254228c760ee31328001c6d",
        "department": "Production",
        "gender": 1,
        "id": 1223198,
        "job": "Producer",
        "name": "Moira Walley-Beckett",
        "profile_path": "/no9Qs6FPlMH0242d1hW8BOMn5zU.jpg"
      },
      {
        "credit_id": "5254228d760ee31328001cc7",
        "department": "Production",
        "gender": 2,
        "id": 17419,
        "job": "Producer",
        "name": "Bryan Cranston",
        "profile_path": "/uwGQELv3FGIGm2KU20tOkcKQ54E.jpg"
      },
      {
        "credit_id": "5254228e760ee31328001ce1",
        "department": "Production",
        "gender": 1,
        "id": 1223202,
        "job": "Producer",
        "name": "Diane Mercer",
        "profile_path": null
      }
    ]
  },
  "videos": {
    "results": [
      {
        "id": "5335e299c3a368265000001d",
        "iso_639_1": "en",
        "iso_3166_1": "US",
        "key": "6OdIbPMU720",
        "name": "Opening Credits (Short)",
        "site": "YouTube",
        "size": 480,
        "type": "Opening Credits"
      },
      {
        "id": "5759db2fc3a3683e7c003df7",
        "iso_639_1": "en",
        "iso_3166_1": "US",
        "key": "XZ8daibM3AE",
        "name": "Trailer",
        "site": "YouTube",
        "size": 720,
        "type": "Trailer"
      }
    ]
  },
  "images": {
    "backdrops": [
      {
        "aspect_ratio": 1.777777777777778,
        "file_path": "/bzoZjhbpriBT2N5kwgK0weUfVOX.jpg",
        "height": 1080,
        "iso_639_1": null,
        "vote_average": 5.5,
        "vote_count": 8,
        "width": 1920
      },
      {
        "aspect_ratio": 1.777777777777778,
        "file_path": "/n5kIjzyYNdDfJbfNkG68j3qDm6n.jpg",
        "height": 1080,
        "iso_639_1": "en",
        "vote_average": 5.442,
        "vote_count": 7,
        "width": 1920
      },
      {
        "aspect_ratio": 1.777777777777778,
        "file_path": "/eSzpy96DwBujGFj0xMbXBcGcfxX.jpg",
        "height": 1080,
        "iso_639_1": null,
        "vote_average": 5.424,
        "vote_count": 9,
        "width": 1920
      },
      {
        "aspect_ratio": 1.777777777777778,
        "file_path": "/hbgPoI0GBrXJfGjYNV2fMQU0xou.jpg",
        "height": 1152,
        "iso_639_1": null,
        "vote_average": 5.39,
        "vote_count": 6,
        "width": 2048
      },
      {
        "aspect_ratio": 1.777777777777778,
        "file_path": "/yFVUqiugxQLLrYxwsIcGQ3P8FWO.jpg",
        "height": 1080,
        "iso_639_1": null,
        "vote_average": 5.388,
        "vote_count": 4,
        "width": 1920
      },
      {
        "aspect_ratio": 1.777777777777778,
        "file_path": "/6u4YG0oNzhFaFJs080ljlpSgpfD.jpg",
        "height": 1080,
        "iso_639_1": null,
        "vote_average": 5.342,
        "vote_count": 10,
        "width": 1920
      },
      {
        "aspect_ratio": 1.777777777777778,
        "file_path": "/2cxsSpTNb8SFczKLrnXlhw2p7hW.jpg",
        "height": 1080,
        "iso_639_1": null,
        "vote_average": 5.316,
        "vote_count": 5,
        "width": 1920
      },
      {
        "aspect_ratio": 1.777777777777778,
        "file_path": "/uOUwoxW2nO8mWN0KQrXiKdXK132.jpg",
        "height": 1080,
        "iso_639_1": "xx",
        "vote_average": 5.308,
        "vote_count": 5,
        "width": 1920
      },
      {
        "aspect_ratio": 1.777777777777778,
        "file_path": "/u3TcKJ1qqgd8D3Dd73FnIMVVsur.jpg",
        "height": 1080,
        "iso_639_1": "en",
        "vote_average": 5.308,
        "vote_count": 5,
        "width": 1920
      },
      {
        "aspect_ratio": 1.777777777777778,
        "file_path": "/zzSjSRC04z7dc4xQopWTJYmXb9g.jpg",
        "height": 1080,
        "iso_639_1": null,
        "vote_average": 5.280739161336177,
        "vote_count": 4,
        "width": 1920
      },
      {
        "aspect_ratio": 1.777777777777778,
        "file_path": "/sIJyCJedGlZf1TId41gCtkblBGo.jpg",
        "height": 1080,
        "iso_639_1": "xx",
        "vote_average": 5.278336686787392,
        "vote_count": 8,
        "width": 1920
      },
      {
        "aspect_ratio": 1.777777777777778,
        "file_path": "/siv4GtEMtrqljl0qiTGCvzolXWH.jpg",
        "height": 1080,
        "iso_639_1": null,
        "vote_average": 5.272601794340924,
        "vote_count": 6,
        "width": 1920
      },
      {
        "aspect_ratio": 1.777777777777778,
        "file_path": "/bbFaLaLv8TwR7KKnZ3reHGS4VQO.jpg",
        "height": 720,
        "iso_639_1": null,
        "vote_average": 5.259417199715708,
        "vote_count": 4,
        "width": 1280
      },
      {
        "aspect_ratio": 1.777777777777778,
        "file_path": "/6HDSHcG7H1qdIrGDTJTft8enWjN.jpg",
        "height": 1080,
        "iso_639_1": "en",
        "vote_average": 5.246,
        "vote_count": 2,
        "width": 1920
      },
      {
        "aspect_ratio": 1.777777777777778,
        "file_path": "/ymrPqhHl8v9tf3eK3f9byggZ0n7.jpg",
        "height": 1080,
        "iso_639_1": null,
        "vote_average": 5.245421245421245,
        "vote_count": 2,
        "width": 1920
      },
      {
        "aspect_ratio": 1.777777777777778,
        "file_path": "/5sHew9rjOsALuDVxwu0pJexOXWA.jpg",
        "height": 1080,
        "iso_639_1": null,
        "vote_average": 5.245421245421245,
        "vote_count": 2,
        "width": 1920
      },
      {
        "aspect_ratio": 1.777777777777778,
        "file_path": "/an69IYogpnY2spo1dGVjmTy0m49.jpg",
        "height": 1080,
        "iso_639_1": null,
        "vote_average": 5.245421245421245,
        "vote_count": 2,
        "width": 1920
      },
      {
        "aspect_ratio": 1.777777777777778,
        "file_path": "/bagJdiz7JzB1bb87x24qKwrgWwK.jpg",
        "height": 1080,
        "iso_639_1": null,
        "vote_average": 5.245421245421245,
        "vote_count": 2,
        "width": 1920
      },
      {
        "aspect_ratio": 1.777777777777778,
        "file_path": "/y3Roit8o1v7EYXGqH7AQMNUBZQR.jpg",
        "height": 1080,
        "iso_639_1": null,
        "vote_average": 5.245421245421245,
        "vote_count": 2,
        "width": 1920
      },
      {
        "aspect_ratio": 1.777777777777778,
        "file_path": "/qgSmYpFBZdfHbjssjJN1XOrb2Us.jpg",
        "height": 1080,
        "iso_639_1": null,
        "vote_average": 5.245421245421245,
        "vote_count": 2,
        "width": 1920
      },
      {
        "aspect_ratio": 1.777777777777778,
        "file_path": "/ewRICWQvNXsViiUouM3M3jm5VyI.jpg",
        "height": 1080,
        "iso_639_1": null,
        "vote_average": 5.245421245421245,
        "vote_count": 2,
        "width": 1920
      },
      {
        "aspect_ratio": 1.777777777777778,
        "file_path": "/99PL1OnOT9PVZx09qerR0s1g0Gx.jpg",
        "height": 1080,
        "iso_639_1": null,
        "vote_average": 5.245421245421245,
        "vote_count": 2,
        "width": 1920
      },
      {
        "aspect_ratio": 1.777777777777778,
        "file_path": "/abFs25RWEvn8WkLholkqFAUC8OF.jpg",
        "height": 1080,
        "iso_639_1": null,
        "vote_average": 5.245421245421245,
        "vote_count": 2,
        "width": 1920
      },
      {
        "aspect_ratio": 1.777777777777778,
        "file_path": "/rMvlRVBngldwWCoGqxQoPdJRnwC.jpg",
        "height": 1080,
        "iso_639_1": null,
        "vote_average": 5.245421245421245,
        "vote_count": 2,
        "width": 1920
      },
      {
        "aspect_ratio": 1.777777777777778,
        "file_path": "/ebQo1jOfx9UR9cPzBa6bHpxMWhq.jpg",
        "height": 1080,
        "iso_639_1": null,
        "vote_average": 5.245421245421245,
        "vote_count": 2,
        "width": 1920
      },
      {
        "aspect_ratio": 1.777777777777778,
        "file_path": "/nxVC9a6TjeoKr6Ezkfz1jRSlf6L.jpg",
        "height": 1080,
        "iso_639_1": null,
        "vote_average": 5.245421245421245,
        "vote_count": 2,
        "width": 1920
      },
      {
        "aspect_ratio": 1.777777777777778,
        "file_path": "/m5apfrjjgc7jbOwRTXqDF5EXXfO.jpg",
        "height": 1080,
        "iso_639_1": null,
        "vote_average": 5.245421245421245,
        "vote_count": 2,
        "width": 1920
      },
      {
        "aspect_ratio": 1.777777777777778,
        "file_path": "/mpfWjvSmNaYCzfUmfnGe1A1wkbu.jpg",
        "height": 1080,
        "iso_639_1": null,
        "vote_average": 5.245421245421245,
        "vote_count": 2,
        "width": 1920
      },
      {
        "aspect_ratio": 1.777777777777778,
        "file_path": "/tJAeZ3OoWDC1LVe7IBmGnBSOYZX.jpg",
        "height": 1080,
        "iso_639_1": null,
        "vote_average": 5.245421245421245,
        "vote_count": 2,
        "width": 1920
      },
      {
        "aspect_ratio": 1.777777777777778,
        "file_path": "/162VmHV23N1FqQhYjZiZCH9GkQA.jpg",
        "height": 720,
        "iso_639_1": null,
        "vote_average": 5.245421245421245,
        "vote_count": 2,
        "width": 1280
      },
      {
        "aspect_ratio": 1.777777777777778,
        "file_path": "/gzqjlgcYIHZSnUS1bnxVDxQwCR0.jpg",
        "height": 720,
        "iso_639_1": null,
        "vote_average": 5.245421245421245,
        "vote_count": 2,
        "width": 1280
      },
      {
        "aspect_ratio": 1.777777777777778,
        "file_path": "/qnnW0CY89lQZPgNrwpARJOBQtI1.jpg",
        "height": 1080,
        "iso_639_1": null,
        "vote_average": 5.245421245421245,
        "vote_count": 2,
        "width": 1920
      },
      {
        "aspect_ratio": 1.777777777777778,
        "file_path": "/yG8QDHyrVMBe5H7Q7cIPKq45Iq0.jpg",
        "height": 720,
        "iso_639_1": null,
        "vote_average": 5.245421245421245,
        "vote_count": 2,
        "width": 1280
      },
      {
        "aspect_ratio": 1.777777777777778,
        "file_path": "/2YeWCxUeVehwsTzyWaQjIf0RCfc.jpg",
        "height": 1080,
        "iso_639_1": "xx",
        "vote_average": 5.244996549344375,
        "vote_count": 6,
        "width": 1920
      },
      {
        "aspect_ratio": 1.777777777777778,
        "file_path": "/61nBiocMvOxvPtJgxk3GLCePvcf.jpg",
        "height": 1080,
        "iso_639_1": null,
        "vote_average": 5.238095238095238,
        "vote_count": 2,
        "width": 1920
      },
      {
        "aspect_ratio": 1.777777777777778,
        "file_path": "/gN14vIo5T2G3kwtdS1lHuFeJXJ9.jpg",
        "height": 1080,
        "iso_639_1": null,
        "vote_average": 5.238095238095238,
        "vote_count": 2,
        "width": 1920
      },
      {
        "aspect_ratio": 1.777777777777778,
        "file_path": "/qamG9LeH42UombW1bfZlIlzO5Y1.jpg",
        "height": 1080,
        "iso_639_1": "en",
        "vote_average": 5.232,
        "vote_count": 6,
        "width": 1920
      },
      {
        "aspect_ratio": 1.777777777777778,
        "file_path": "/gsTAr00IPr4xchkY5Upb1wDewdz.jpg",
        "height": 1152,
        "iso_639_1": null,
        "vote_average": 5.171130952380953,
        "vote_count": 1,
        "width": 2048
      },
      {
        "aspect_ratio": 1.777777777777778,
        "file_path": "/1VUcBGU5fGM3xxLjMitq6yiso67.jpg",
        "height": 1152,
        "iso_639_1": null,
        "vote_average": 5.171130952380953,
        "vote_count": 1,
        "width": 2048
      },
      {
        "aspect_ratio": 1.777777777777778,
        "file_path": "/2kjj1me8oRXc9FmbR1UkFqb1mwA.jpg",
        "height": 1152,
        "iso_639_1": null,
        "vote_average": 5.171130952380953,
        "vote_count": 1,
        "width": 2048
      },
      {
        "aspect_ratio": 1.77732379979571,
        "file_path": "/dMIyjizosMyzmJVfzVDjjHsKdqp.jpg",
        "height": 979,
        "iso_639_1": null,
        "vote_average": 5.171130952380953,
        "vote_count": 1,
        "width": 1740
      },
      {
        "aspect_ratio": 1.777777777777778,
        "file_path": "/bTJLGUbqcGAuZnNvp59zjqqLzOR.jpg",
        "height": 1080,
        "iso_639_1": null,
        "vote_average": 5.171130952380953,
        "vote_count": 1,
        "width": 1920
      },
      {
        "aspect_ratio": 1.777777777777778,
        "file_path": "/aIOpF9Fp1SbYpSusJ3scDTYrqod.jpg",
        "height": 1080,
        "iso_639_1": null,
        "vote_average": 5.171130952380953,
        "vote_count": 1,
        "width": 1920
      },
      {
        "aspect_ratio": 1.777777777777778,
        "file_path": "/uqBIxGmeZMLdBA3SIa7fXC438zw.jpg",
        "height": 1080,
        "iso_639_1": "xx",
        "vote_average": 5.171130952380953,
        "vote_count": 1,
        "width": 1920
      },
      {
        "aspect_ratio": 1.777777777777778,
        "file_path": "/k2N2DpK7kDcM0rXLKuTV6bUTIZN.jpg",
        "height": 1080,
        "iso_639_1": null,
        "vote_average": 5.171130952380953,
        "vote_count": 1,
        "width": 1920
      },
      {
        "aspect_ratio": 1.777777777777778,
        "file_path": "/rmOmfel02YAgVRUdb9tlRyLW8mm.jpg",
        "height": 1080,
        "iso_639_1": null,
        "vote_average": 5.171130952380953,
        "vote_count": 1,
        "width": 1920
      },
      {
        "aspect_ratio": 1.777777777777778,
        "file_path": "/vIgu5fsJH50QcSz2hmfaqJHovUo.jpg",
        "height": 1080,
        "iso_639_1": null,
        "vote_average": 5.171130952380953,
        "vote_count": 1,
        "width": 1920
      },
      {
        "aspect_ratio": 1.777777777777778,
        "file_path": "/eCaT3wx244KPmnMchvag3kSGGw5.jpg",
        "height": 1080,
        "iso_639_1": null,
        "vote_average": 5.171130952380953,
        "vote_count": 1,
        "width": 1920
      },
      {
        "aspect_ratio": 1.777777777777778,
        "file_path": "/gVqPqjyiDmpoNJOFjvg0b8WCC3R.jpg",
        "height": 1080,
        "iso_639_1": null,
        "vote_average": 5.171130952380953,
        "vote_count": 1,
        "width": 1920
      },
      {
        "aspect_ratio": 1.777777777777778,
        "file_path": "/bZ23G5JiNmeZG9t6hRMLhY9W3gP.jpg",
        "height": 720,
        "iso_639_1": null,
        "vote_average": 5.171130952380953,
        "vote_count": 1,
        "width": 1280
      },
      {
        "aspect_ratio": 1.777777777777778,
        "file_path": "/nIh1ygw5kVRaEFqXcj8CTi3pKK5.jpg",
        "height": 720,
        "iso_639_1": null,
        "vote_average": 5.171130952380953,
        "vote_count": 1,
        "width": 1280
      },
      {
        "aspect_ratio": 1.777777777777778,
        "file_path": "/mojM8NJQlpTWpiD68rcOWnzcEVR.jpg",
        "height": 720,
        "iso_639_1": null,
        "vote_average": 5.171130952380953,
        "vote_count": 1,
        "width": 1280
      },
      {
        "aspect_ratio": 1.777777777777778,
        "file_path": "/dRaV8HGx7Z9xmw77qSs8prp5OuI.jpg",
        "height": 720,
        "iso_639_1": null,
        "vote_average": 5.171130952380953,
        "vote_count": 1,
        "width": 1280
      },
      {
        "aspect_ratio": 1.777777777777778,
        "file_path": "/bFWW5vVZS1YW0a0Cq0liYakj6vt.jpg",
        "height": 1080,
        "iso_639_1": null,
        "vote_average": 5.171130952380953,
        "vote_count": 1,
        "width": 1920
      },
      {
        "aspect_ratio": 1.777777777777778,
        "file_path": "/mrPw1gAXXV8OYQTr8ipKuYTuaa6.jpg",
        "height": 1080,
        "iso_639_1": null,
        "vote_average": 5.171130952380953,
        "vote_count": 1,
        "width": 1920
      },
      {
        "aspect_ratio": 1.777777777777778,
        "file_path": "/eIOpMbnMqiAgBS8cZocAATRsb28.jpg",
        "height": 1080,
        "iso_639_1": "en",
        "vote_average": 5.168,
        "vote_count": 4,
        "width": 1920
      },
      {
        "aspect_ratio": 1.777777777777778,
        "file_path": "/upeNbWF5wKZUOUcUW4EnVfYYjRo.jpg",
        "height": 1080,
        "iso_639_1": "en",
        "vote_average": 5.158,
        "vote_count": 3,
        "width": 1920
      },
      {
        "aspect_ratio": 1.777777777777778,
        "file_path": "/qfWveejMEeA4zGgscX8YUUTLuTB.jpg",
        "height": 1080,
        "iso_639_1": "en",
        "vote_average": 5.152,
        "vote_count": 3,
        "width": 1920
      },
      {
        "aspect_ratio": 1.777777777777778,
        "file_path": "/6tRuCy7VXidZVRXIR4ThBx2omK3.jpg",
        "height": 1080,
        "iso_639_1": "en",
        "vote_average": 5.152,
        "vote_count": 3,
        "width": 1920
      },
      {
        "aspect_ratio": 1.777777777777778,
        "file_path": "/v5F4chUYiRnH9cI2JCpWrrK3q6D.jpg",
        "height": 1080,
        "iso_639_1": null,
        "vote_average": 5.113553113553113,
        "vote_count": 2,
        "width": 1920
      },
      {
        "aspect_ratio": 1.777777777777778,
        "file_path": "/zintOUBVjVapaNN3vAmm1rcfY1p.jpg",
        "height": 1080,
        "iso_639_1": "en",
        "vote_average": 5.11,
        "vote_count": 4,
        "width": 1920
      },
      {
        "aspect_ratio": 1.777777777777778,
        "file_path": "/nXlTbIrgroOCCKQSsMizmqQ4NAG.jpg",
        "height": 720,
        "iso_639_1": "en",
        "vote_average": 5.094,
        "vote_count": 3,
        "width": 1280
      },
      {
        "aspect_ratio": 1.777777777777778,
        "file_path": "/va7jNaQUsIdWADokQSdPXeJYk1O.jpg",
        "height": 720,
        "iso_639_1": "en",
        "vote_average": 5.072,
        "vote_count": 3,
        "width": 1280
      },
      {
        "aspect_ratio": 1.777777777777778,
        "file_path": "/3FnSPz1nqkaW65dj4BWRN185adp.jpg",
        "height": 1080,
        "iso_639_1": "en",
        "vote_average": 5.058,
        "vote_count": 3,
        "width": 1920
      },
      {
        "aspect_ratio": 1.777777777777778,
        "file_path": "/2X0RK6uztO7J5XBSRtRcNGlzGml.jpg",
        "height": 1080,
        "iso_639_1": "en",
        "vote_average": 5.018,
        "vote_count": 4,
        "width": 1920
      },
      {
        "aspect_ratio": 1.777777777777778,
        "file_path": "/75GBzWJbNjwDA5sVPrELfttihL0.jpg",
        "height": 1080,
        "iso_639_1": null,
        "vote_average": 0,
        "vote_count": 0,
        "width": 1920
      }
    ],
    "posters": [
      {
        "aspect_ratio": 0.6666666666666666,
        "file_path": "/1yeVJox3rjo2jBKrrihIMj7uoS9.jpg",
        "height": 1800,
        "iso_639_1": "en",
        "vote_average": 5.708,
        "vote_count": 9,
        "width": 1200
      },
      {
        "aspect_ratio": 0.666,
        "file_path": "/gOMcl7SEF1DvW0D3nOiaW8x8IgN.jpg",
        "height": 1500,
        "iso_639_1": "en",
        "vote_average": 5.376,
        "vote_count": 6,
        "width": 999
      },
      {
        "aspect_ratio": 0.68,
        "file_path": "/wnoMOVO06oI55fWrR0mQUbquERh.jpg",
        "height": 1000,
        "iso_639_1": "en",
        "vote_average": 5.322128851540616,
        "vote_count": 5,
        "width": 680
      },
      {
        "aspect_ratio": 0.68,
        "file_path": "/zdipQZmcmaCUNGsXP6OdBEjDCSP.jpg",
        "height": 1000,
        "iso_639_1": "en",
        "vote_average": 5.318,
        "vote_count": 3,
        "width": 680
      },
      {
        "aspect_ratio": 0.6666666666666666,
        "file_path": "/xL5yWkuH1PlmNJmpWvIxAfXvNXK.jpg",
        "height": 2268,
        "iso_639_1": "hu",
        "vote_average": 5.312,
        "vote_count": 1,
        "width": 1512
      },
      {
        "aspect_ratio": 0.68,
        "file_path": "/fzNaunYfNFvVesiIvcEgr8h4qix.jpg",
        "height": 1000,
        "iso_639_1": "en",
        "vote_average": 5.280739161336177,
        "vote_count": 4,
        "width": 680
      },
      {
        "aspect_ratio": 0.68,
        "file_path": "/85fOzuORUuQlDPSNkFCDnaUXZtv.jpg",
        "height": 1000,
        "iso_639_1": "en",
        "vote_average": 5.274,
        "vote_count": 4,
        "width": 680
      },
      {
        "aspect_ratio": 0.6746666666666666,
        "file_path": "/knmKpwrnCEWkt3aCL4fvqr403EY.jpg",
        "height": 1500,
        "iso_639_1": "en",
        "vote_average": 5.258,
        "vote_count": 6,
        "width": 1012
      },
      {
        "aspect_ratio": 0.6666666666666666,
        "file_path": "/cdCTaW30Cbc5PkBtsOgXRggZr9B.jpg",
        "height": 1188,
        "iso_639_1": "en",
        "vote_average": 5.246,
        "vote_count": 2,
        "width": 792
      },
      {
        "aspect_ratio": 0.6666666666666666,
        "file_path": "/yrWjw43fnCYoqXKeqN9waKhd0YH.jpg",
        "height": 1500,
        "iso_639_1": "hu",
        "vote_average": 5.246,
        "vote_count": 2,
        "width": 1000
      },
      {
        "aspect_ratio": 0.6746666666666666,
        "file_path": "/dYRzVaQTx2VWLiZ3yRvbAfkOq2m.jpg",
        "height": 1500,
        "iso_639_1": "en",
        "vote_average": 5.246,
        "vote_count": 4,
        "width": 1012
      },
      {
        "aspect_ratio": 0.6746666666666666,
        "file_path": "/m0sJjJGgicwwI2jvzli4Xo17ySE.jpg",
        "height": 1500,
        "iso_639_1": "en",
        "vote_average": 5.238095238095238,
        "vote_count": 2,
        "width": 1012
      },
      {
        "aspect_ratio": 0.6746666666666666,
        "file_path": "/9w5tMhylCiBzsSnptsbTqjAY51O.jpg",
        "height": 1500,
        "iso_639_1": "en",
        "vote_average": 5.238095238095238,
        "vote_count": 2,
        "width": 1012
      },
      {
        "aspect_ratio": 0.68,
        "file_path": "/xd8tk9ox8QvQClvD48bmQc2t6dx.jpg",
        "height": 1000,
        "iso_639_1": null,
        "vote_average": 5.238095238095238,
        "vote_count": 1,
        "width": 680
      },
      {
        "aspect_ratio": 0.68,
        "file_path": "/7pFpIXpn2DOst3bOMQIqCEHeAWS.jpg",
        "height": 1000,
        "iso_639_1": "en",
        "vote_average": 5.230769230769231,
        "vote_count": 2,
        "width": 680
      },
      {
        "aspect_ratio": 0.68,
        "file_path": "/51H0ifZ0TM5sAp4yBvolUpFaPaC.jpg",
        "height": 1000,
        "iso_639_1": "en",
        "vote_average": 5.223443223443224,
        "vote_count": 2,
        "width": 680
      },
      {
        "aspect_ratio": 0.68,
        "file_path": "/nXXSNb8qXn66DeZL0BIG79Omyo2.jpg",
        "height": 1000,
        "iso_639_1": "en",
        "vote_average": 5.216773276474768,
        "vote_count": 4,
        "width": 680
      },
      {
        "aspect_ratio": 0.6666666666666666,
        "file_path": "/j5k6ZTYqamPDZplCCXuokjJ2PoJ.jpg",
        "height": 2400,
        "iso_639_1": "en",
        "vote_average": 5.180375180375181,
        "vote_count": 3,
        "width": 1600
      },
      {
        "aspect_ratio": 0.68,
        "file_path": "/uL7s6lRsApvFuxQFqT5FA1SuSdX.jpg",
        "height": 1000,
        "iso_639_1": "en",
        "vote_average": 5.18,
        "vote_count": 3,
        "width": 680
      },
      {
        "aspect_ratio": 0.68,
        "file_path": "/xkbl9GV6p9JwDPXIYwODVcunlRT.jpg",
        "height": 1000,
        "iso_639_1": "en",
        "vote_average": 5.172161172161172,
        "vote_count": 2,
        "width": 680
      },
      {
        "aspect_ratio": 0.68,
        "file_path": "/fO3OqQQEIZN44K9jcs0Q4JuFHOl.jpg",
        "height": 1000,
        "iso_639_1": "en",
        "vote_average": 5.168067226890757,
        "vote_count": 5,
        "width": 680
      },
      {
        "aspect_ratio": 0.68,
        "file_path": "/6uiT7QidRjVVywFgOAUQoY7iPup.jpg",
        "height": 1000,
        "iso_639_1": "en",
        "vote_average": 5.167022032693675,
        "vote_count": 4,
        "width": 680
      },
      {
        "aspect_ratio": 0.68,
        "file_path": "/hyWz3p2KCxw3T3OTyFzQgYvkhJf.jpg",
        "height": 1000,
        "iso_639_1": "en",
        "vote_average": 5.164835164835165,
        "vote_count": 2,
        "width": 680
      },
      {
        "aspect_ratio": 0.646,
        "file_path": "/611HU9P9kIJJzb6FbBLlXMXZML3.jpg",
        "height": 1500,
        "iso_639_1": "en",
        "vote_average": 5.151515151515151,
        "vote_count": 3,
        "width": 969
      },
      {
        "aspect_ratio": 0.68,
        "file_path": "/t9r2UYuRppdZKmeYHSgdx09uHzl.jpg",
        "height": 1000,
        "iso_639_1": "en",
        "vote_average": 5.150183150183151,
        "vote_count": 2,
        "width": 680
      },
      {
        "aspect_ratio": 0.68,
        "file_path": "/u69b0G6HlfrwkchQdn8lzEEjFxt.jpg",
        "height": 1000,
        "iso_639_1": "en",
        "vote_average": 5.150183150183151,
        "vote_count": 2,
        "width": 680
      },
      {
        "aspect_ratio": 0.68,
        "file_path": "/biPjf15logCBAIptiM1YYCOeTxE.jpg",
        "height": 1000,
        "iso_639_1": "en",
        "vote_average": 5.128205128205129,
        "vote_count": 2,
        "width": 680
      },
      {
        "aspect_ratio": 0.68,
        "file_path": "/8VxH7FSiCDmSZyfxsqz25ZWbP7O.jpg",
        "height": 1000,
        "iso_639_1": "en",
        "vote_average": 5.128205128205129,
        "vote_count": 2,
        "width": 680
      },
      {
        "aspect_ratio": 0.7501875468867217,
        "file_path": "/2iLQMo2jVgSdmXytv3xB93UW8UC.jpg",
        "height": 1333,
        "iso_639_1": "en",
        "vote_average": 5.124378109452737,
        "vote_count": 4,
        "width": 1000
      },
      {
        "aspect_ratio": 0.68,
        "file_path": "/xMvrBjxu2EskHhiZ2sNgufBhGzF.jpg",
        "height": 1000,
        "iso_639_1": "en",
        "vote_average": 5.113553113553113,
        "vote_count": 2,
        "width": 680
      },
      {
        "aspect_ratio": 0.6768707482993197,
        "file_path": "/wCDwxCzHPPAqEkHLpj97KGaIyEP.jpg",
        "height": 1176,
        "iso_639_1": "en",
        "vote_average": 5.106227106227106,
        "vote_count": 2,
        "width": 796
      },
      {
        "aspect_ratio": 0.68,
        "file_path": "/21YJ4mM7C9V5e2esqeB4AoBjKPy.jpg",
        "height": 1000,
        "iso_639_1": "en",
        "vote_average": 5.086580086580087,
        "vote_count": 3,
        "width": 680
      },
      {
        "aspect_ratio": 0.68,
        "file_path": "/3feoWsQPtBdUhrOCVPB1iazSb2W.jpg",
        "height": 1000,
        "iso_639_1": "en",
        "vote_average": 5.017768301350392,
        "vote_count": 4,
        "width": 680
      },
      {
        "aspect_ratio": 0.68,
        "file_path": "/pOLOC2tzz70N1RngVZtfhJuB5Fp.jpg",
        "height": 1000,
        "iso_639_1": "en",
        "vote_average": 5.010660980810234,
        "vote_count": 4,
        "width": 680
      },
      {
        "aspect_ratio": 0.6669995007488767,
        "file_path": "/63fCIVNPB2YCddJuNqb1LDI8uVv.jpg",
        "height": 2003,
        "iso_639_1": "en",
        "vote_average": 0,
        "vote_count": 0,
        "width": 1336
      },
      {
        "aspect_ratio": 0.6748466257668712,
        "file_path": "/nPv2DbunBOK2QZ4SNpWYeUp1ba3.jpg",
        "height": 815,
        "iso_639_1": "uk",
        "vote_average": 0,
        "vote_count": 0,
        "width": 550
      },
      {
        "aspect_ratio": 0.626657824933687,
        "file_path": "/oBb82JGB76jpT4d1AQDZEwSJdPj.jpg",
        "height": 1508,
        "iso_639_1": "uk",
        "vote_average": 0,
        "vote_count": 0,
        "width": 945
      },
      {
        "aspect_ratio": 0.68,
        "file_path": "/oAJvOW85rXKs8GlWoT5jssd7qNU.jpg",
        "height": 1000,
        "iso_639_1": "he",
        "vote_average": 0,
        "vote_count": 0,
        "width": 680
      },
      {
        "aspect_ratio": 0.68,
        "file_path": "/1gNZDkSc1kb9azLYVQHS9DCBpAs.jpg",
        "height": 1000,
        "iso_639_1": "ru",
        "vote_average": 0,
        "vote_count": 0,
        "width": 680
      },
      {
        "aspect_ratio": 0.68,
        "file_path": "/e6Ydx9xHuiQa6qsx20LR4x71DCS.jpg",
        "height": 1000,
        "iso_639_1": "ru",
        "vote_average": 0,
        "vote_count": 0,
        "width": 680
      },
      {
        "aspect_ratio": 0.68,
        "file_path": "/mVIvcV9IEsfnTdbNXPNWkiU6N7t.jpg",
        "height": 1000,
        "iso_639_1": "ru",
        "vote_average": 0,
        "vote_count": 0,
        "width": 680
      },
      {
        "aspect_ratio": 0.68,
        "file_path": "/i5bfplXbyLm7BvofUBVj7Zaan4w.jpg",
        "height": 1000,
        "iso_639_1": "ru",
        "vote_average": 0,
        "vote_count": 0,
        "width": 680
      },
      {
        "aspect_ratio": 0.68,
        "file_path": "/mmtUaqRpsWcqb4ISF3CaoK0ptO7.jpg",
        "height": 1000,
        "iso_639_1": "ru",
        "vote_average": 0,
        "vote_count": 0,
        "width": 680
      },
      {
        "aspect_ratio": 0.68,
        "file_path": "/3bHLOzAOY2Rn4c5YrvALzZVE6tg.jpg",
        "height": 1000,
        "iso_639_1": "ru",
        "vote_average": 0,
        "vote_count": 0,
        "width": 680
      },
      {
        "aspect_ratio": 0.706,
        "file_path": "/6PIZjmmA8aYXBP2q2BrfTSqnahZ.jpg",
        "height": 1000,
        "iso_639_1": "bg",
        "vote_average": 0,
        "vote_count": 0,
        "width": 706
      }
    ]
  }
}